Social Factors and Children’s Mental Health
…
In this step, we will mutate, rename, and regroup our variables as needed.

3.2.1 Selecting Variables of Interest

Given the extensive size of the raw data set, we will filter the data set to include the variables of interest for our analysis. Additionally, we will narrow the population of interest to those living in the Midwest.

Code

child_raw <- R.child22 |>
  select (HHX,REGION, SEX_C, AGEP_C, MAXEDUCP_C, PHSTAT_C, SDQTOT_C, VIOLENEV_C, HISPALLP_C) |> 
  filter(`REGION` == 2, AGEP_C < 97, SEX_C < 10, MAXEDUCP_C < 97 , PHSTAT_C < 10, SDQTOT_C < 90, VIOLENEV_C < 10, HISPALLP_C < 8)

child_raw

# A tibble: 1,191 × 9
   HHX    REGION SEX_C AGEP_C MAXEDUCP_C PHSTAT_C SDQTOT_C VIOLENEV_C HISPALLP_C
   <fct>   <dbl> <dbl>  <dbl>      <dbl>    <dbl>    <dbl>      <dbl>      <dbl>
 1 H0516…      2     2     17          8        3        8          2          2
 2 H0166…      2     2      7          1        1       14          2          1
 3 H0379…      2     1      5          1        1        2          2          1
 4 H0394…      2     1     10          9        1        0          2          2
 5 H0088…      2     1      5          5        1        6          2          2
 6 H0645…      2     1     17          9        1        4          2          4
 7 H0290…      2     1      7          8        2        3          2          2
 8 H0377…      2     2     13          8        2       11          2          2
 9 H0128…      2     1     15          8        2       88          8          2
10 H0038…      2     1     12          9        1        0          2          2
# ℹ 1,181 more rows
…
child_raw$SEX_C= na_if(child_raw$SEX_C, 7)
child_raw$SEX_C= na_if(child_raw$SEX_C, 8)
child_raw$SEX_C= na_if(child_raw$SEX_C, 9)
child_raw$SDQTOT_C= na_if(child_raw$SDQTOT_C,88)
child_raw$PHSTAT_C = na_if(child_raw$PHSTAT_C, 7)
child_raw$PHSTAT_C = na_if(child_raw$PHSTAT_C, 8)
child_raw$PHSTAT_C = na_if(child_raw$PHSTAT_C, 9)
child_raw$VIOLENEV_C = na_if(child_raw$VIOLENEV_C, 7)
child_raw$VIOLENEV_C = na_if(child_raw$VIOLENEV_C, 8)
child_raw$VIOLENEV_C = na_if(child_raw$VIOLENEV_C, 9)

child_raw

# A tibble: 1,191 × 9
   HHX    REGION SEX_C AGEP_C MAXEDUCP_C PHSTAT_C SDQTOT_C VIOLENEV_C HISPALLP_C
   <fct>   <dbl> <dbl>  <dbl>      <dbl>    <dbl>    <dbl>      <dbl>      <dbl>
 1 H0516…      2     2     17          8        3        8          2          2
 2 H0166…      2     2      7          1        1       14          2          1
 3 H0379…      2     1      5          1        1        2          2          1
 4 H0394…      2     1     10          9        1        0          2          2
 5 H0088…      2     1      5          5        1        6          2          2
 6 H0645…      2     1     17          9        1        4          2          4
 7 H0290…      2     1      7          8        2        3          2          2
 8 H0377…      2     2     13          8        2       11          2          2
 9 H0128…      2     1     15          8        2       NA         NA          2
10 H0038…      2     1     12          9        1        0          2          2
# ℹ 1,181 more rows
3.2.2 Converting Variable Types

We will convert the variables into factors, except for HHX, which will remain as a character. The variables AGE_C and SDQTOT_C are the only quantitative variables and will be converted into numeric variables.

Code

child_raw <- child_raw |>
  mutate_if(is.vector, as.factor)|>
  mutate(HHX = as.character(HHX))|>
  mutate(AGEP_C = as.numeric(AGEP_C))|>
  mutate(SDQTOT_C= as.numeric(SDQTOT_C))

child_raw

# A tibble: 1,191 × 9
   HHX    REGION SEX_C AGEP_C MAXEDUCP_C PHSTAT_C SDQTOT_C VIOLENEV_C HISPALLP_C
   <chr>  <fct>  <fct>  <dbl> <fct>      <fct>       <dbl> <fct>      <fct>     
 1 H0516… 2      2         14 8          3               9 2          2         
 2 H0166… 2      2          4 1          1              15 2          1         
 3 H0379… 2      1          2 1          1               3 2          1         
 4 H0394… 2      1          7 9          1               1 2          2         
 5 H0088… 2      1          2 5          1               7 2          2         
 6 H0645… 2      1         14 9          1               5 2          4         
 7 H0290… 2      1          4 8          2               4 2          2         
 8 H0377… 2      2         10 8          2              12 2          2         
 9 H0128… 2      1         12 8          2              NA <NA>       2         
10 H0038… 2      1          9 9          1               1 2          2         
# ℹ 1,181 more rows
…
child22 <- child22 |>
  rename(sex = SEX_C,
         age = AGEP_C,
         race = HISPALLP_C,
         adult_edu = MAXEDUCP_C,
         health_status = PHSTAT_C, 
         sdq = SDQTOT_C, 
         violence = VIOLENEV_C,
         id = HHX)

child22

# A tibble: 1,191 × 8
   id      sex     age adult_edu health_status   sdq violence race 
   <chr>   <fct> <dbl> <fct>     <fct>         <dbl> <fct>    <fct>
 1 H051614 2        14 8         3                 9 2        2    
 2 H016609 2         4 1         1                15 2        1    
 3 H037925 1         2 1         1                 3 2        1    
 4 H039485 1         7 9         1                 1 2        2    
 5 H008818 1         2 5         1                 7 2        2    
 6 H064500 1        14 9         1                 5 2        4    
 7 H029084 1         4 8         2                 4 2        2    
 8 H037799 2        10 8         2                12 2        2    
 9 H012805 1        12 8         2                NA <NA>     2    
10 H003829 1         9 9         1                 1 2        2    
# ℹ 1,181 more rows
…
[1] 1191    8

we have 1191 observations and 8 variables of interest (including id).

4 The Tidy Tibble

4.1 Listing the Tibble

We will observe the finalized version of our data set after cleaning and filtering the variables:

Code

child22

# A tibble: 1,191 × 8
   id      sex      age adult_edu             health_status   sdq violence race 
   <chr>   <fct>  <dbl> <fct>                 <fct>         <dbl> <fct>    <fct>
 1 H051614 Female    14 bachelors_degree      Not very good     9 No       White
 2 H016609 Female     4 incomplete_highschool Excellent        15 No       Hisp…
 3 H037925 Male       2 incomplete_highschool Excellent         3 No       Hisp…
 4 H039485 Male       7 graduate_degree       Excellent         1 No       White
 5 H008818 Male       2 incomplete_college    Excellent         7 No       White
 6 H064500 Male      14 graduate_degree       Excellent         5 No       Asian
 7 H029084 Male       4 bachelors_degree      Very Good         4 No       White
 8 H037799 Female    10 bachelors_degree      Very Good        12 No       White
 9 H012805 Male      12 bachelors_degree      Very Good        NA <NA>     White
10 H003829 Male       9 graduate_degree       Excellent         1 No       White
# ℹ 1,181 more rows
…
9 Logistic Regression Analyses

We will start by creating a data subset including the predictors for the logistic regression analysis:

Code

child22_log <- child22|>
  select(id, sex, age, race, health_status, adult_edu, violence)

child22_log

# A tibble: 1,191 × 7
   id      sex      age race     health_status adult_edu             violence
   <chr>   <fct>  <dbl> <fct>    <fct>         <fct>                 <fct>   
 1 H051614 Female    14 White    Not very good bachelors_degree      No      
 2 H016609 Female     4 Hispanic Excellent     incomplete_highschool No      
 3 H037925 Male       2 Hispanic Excellent     incomplete_highschool No      
 4 H039485 Male       7 White    Excellent     graduate_degree       No      
 5 H008818 Male       2 White    Excellent     incomplete_college    No      
 6 H064500 Male      14 Asian    Excellent     graduate_degree       No      
 7 H029084 Male       4 White    Very Good     bachelors_degree      No      
 8 H037799 Female    10 White    Very Good     bachelors_degree      No      
 9 H012805 Male      12 White    Very Good     bachelors_degree      <NA>    
10 H003829 Male       9 White    Excellent     graduate_degree       No      
# ℹ 1,181 more rows
…
9.1 Predictor Selection

In the logistic analysis plan, we decided to reduce the number of predictors from 5 variables to 4 variables. All of the predictors included in the model are child social factors including their age, sex, race, and health status. Parental educational level adult_edu is the only variable associated with parents. This variable also has the highest number of levels (6 educational levels) and therefore will use more degrees of freedom compared to the rest of the predictors. Based on these facts, we decided to remove this variable from the logistic model.

The finalized logistic model data set will include be:

Code

child22_log <- child22_log|>
   select(-adult_edu)

child22_log

# A tibble: 1,191 × 6
   id      sex      age race     health_status violence
   <chr>   <fct>  <dbl> <fct>    <fct>            <dbl>
 1 H051614 Female    14 White    Not very good        0
 2 H016609 Female     4 Hispanic Excellent            0
 3 H037925 Male       2 Hispanic Excellent            0
 4 H039485 Male       7 White    Excellent            0
 5 H008818 Male       2 White    Excellent            0
 6 H064500 Male      14 Asian    Excellent            0
 7 H029084 Male       4 White    Very Good            0
 8 H037799 Female    10 White    Very Good            0
 9 H012805 Male      12 White    Very Good           NA
10 H003829 Male       9 White    Excellent            0
# ℹ 1,181 more rows
…
