Dental Proportion: A Potential Factor in Reducing Adult Smoking and Excessive Drinking
…
--------------------------------------------------------------------------------

1.5 Dealing with Missingness

Code

miss_var_summary(chr_1)

# A tibble: 35 × 3
   variable          n_miss pct_miss
   <chr>              <int>    <num>
 1 dentist_grp         1641   51.4  
 2 dentist_n           1641   51.4  
 3 segregation         1067   33.4  
 4 highschool_grad      678   21.2  
 5 mental_care          185    5.79 
 6 primary_care         157    4.91 
 7 life_expectancy       73    2.28 
 8 food_index            35    1.10 
 9 income_inequality     15    0.469
10 housing_burden         5    0.156
# ℹ 25 more rows
…
Code

chr_simp <- 
  mice(chr_simp, m = 1, seed = 500, print = FALSE) |>
  complete() |>
  tibble()

Warning: Number of logged events: 67

Code

miss_var_summary(chr_simp)

# A tibble: 35 × 3
   variable      n_miss pct_miss
   <chr>          <int>    <num>
 1 fipscode           0        0
 2 poor_health        0        0
 3 poor_physical      0        0
 4 poor_mental        0        0
 5 food_index         0        0
 6 uninsured          0        0
 7 primary_care       0        0
 8 mental_care        0        0
 9 some_college       0        0
10 unemployment       0        0
# ℹ 25 more rows
…
