Cross-sectional analysis expolring the association between cumulative smoking years and body mass index among women in Texas
…
Their average alcohol consumption per day AVEDRNK3 and whether they are categorized as heavy drinkers or not _RFDRHV8

2.2 Variable Filter

We will select our population of interest (Adult women, below the age of 65, residing in Texas) and filter other variables to include appropriate values for our analysis. We will also filter out missing values (such as un-answered and refused to answer categories):

TX <- BRFSS_study |>
  filter( `_STATE` == 48, `_SEX`== 2, `_AGE65YR`== 1, WEIGHT2 < 0776, `_RFBMI5`< 3, `_RFSMOK3`< 3, SMOKDAY2 < 4, `_BMI5CAT` < 5 )|>
  select( SEQNO, `_RFBMI5`, `_BMI5`, `_BMI5CAT`, WEIGHT2,`_YRSSMOK`, `_RFSMOK3`, SMOKDAY2, AVEDRNK3, `_RFDRHV8`, `_IMPRACE`)

This is our initial data set

TX 

# A tibble: 1,164 × 11
   SEQNO     `_RFBMI5` `_BMI5` `_BMI5CAT` WEIGHT2 `_YRSSMOK` `_RFSMOK3` SMOKDAY2
   <chr>         <dbl>   <dbl>      <dbl>   <dbl>      <dbl>      <dbl>    <dbl>
 1 20220009…         2    2663          3     170         11          1        3
 2 20220009…         1    2001          2     124         28          1        3
 3 20220010…         2    3004          4     175         41          2        1
 4 20220010…         2    3986          4     225         11          1        3
 5 20220010…         1    2455          2     143         23          2        1
 6 20220010…         2    2887          3     163         NA          1        3
 7 20220010…         1    2036          2     130         24          1        3
 8 20220011…         2    2523          3     147         16          1        3
 9 20220011…         2    4241          4     210         33          1        3
10 20220011…         2    4207          4     230         35          1        3
# ℹ 1,154 more rows
# ℹ 3 more variables: AVEDRNK3 <dbl>, `_RFDRHV8` <dbl>, `_IMPRACE` <dbl>
…
None of the subjects are missing more than 2 variables as demonstrated below.

miss_case_summary(TX_b)

# A tibble: 1,164 × 3
    case n_miss pct_miss
   <int>  <int>    <dbl>
 1     6      2     15.4
 2    59      2     15.4
 3    70      2     15.4
 4    80      2     15.4
 5    84      2     15.4
 6    86      2     15.4
 7    91      2     15.4
 8    99      2     15.4
 9   130      2     15.4
10   184      2     15.4
# ℹ 1,154 more rows

For this analysis we will assume that the observations are missing completely at random. In this case, using complete cases method to deal with the missing data is appropriate.

This is the complete data set for the analysis.

TX_CC <- TX_b |>
  select(SEQNO, race_cat, overweight, bmi, bmi_category, weight, smoke_years, smoke_currently, smoke_frequency, drink_daily, drink_heavy) |>
  drop_na()

TX_CC

# A tibble: 565 × 11
   SEQNO      race_cat overweight   bmi bmi_category weight smoke_years
   <chr>      <fct>         <dbl> <dbl>        <dbl>  <dbl>       <dbl>
 1 2022000985 White             2  26.6            3    170          11
 2 2022001128 White             2  25.2            3    147          16
 3 2022001266 White             2  25.1            3    185          33
 4 2022001354 Hispanic          2  30.2            4    160          31
 5 2022001400 Black             2  41.6            4    220          16
 6 2022001422 White             2  25.8            3    160          25
 7 2022001512 Hispanic          2  43.6            4    270          30
 8 2022001541 White             2  31.6            4    196          50
 9 2022001655 White             2  27.1            3    148          18
10 2022001845 White             2  26.6            3    165          47
# ℹ 555 more rows
# ℹ 4 more variables: smoke_currently <dbl>, smoke_frequency <dbl>,
#   drink_daily <dbl>, drink_heavy <dbl>
…
For this analysis (study 2) we will only use five predictors: smoke_years, weight, race_cat, and drink_daily.

Now we will create a subset from the complete cases set Texas_cc with the 5 variables of interest for study 2 analysis.

TX_analytic <- TX_CC |>
  select(SEQNO, race_cat, bmi, smoke_years, weight, drink_daily) 

3.2 Analytic Tibble

Our analytic tibble has 6 variables and 550 observations with complete cases.

TX_analytic

# A tibble: 565 × 6
   SEQNO      race_cat   bmi smoke_years weight drink_daily
   <chr>      <fct>    <dbl>       <dbl>  <dbl>       <dbl>
 1 2022000985 White     26.6          11    170           2
 2 2022001128 White     25.2          16    147           1
 3 2022001266 White     25.1          33    185           2
 4 2022001354 Hispanic  30.2          31    160           1
 5 2022001400 Black     41.6          16    220           6
 6 2022001422 White     25.8          25    160           1
 7 2022001512 Hispanic  43.6          30    270           2
 8 2022001541 White     31.6          50    196           1
 9 2022001655 White     27.1          18    148           1
10 2022001845 White     26.6          47    165           2
# ℹ 555 more rows
…
